{
  "project_info": {
    "project_number": "233071263774",
    "project_id": "op-android",
    "storage_bucket": "op-android.appspot.com"
  },
  "client": [
    {
      "client_info": {
        "mobilesdk_app_id": "1:233071263774:android:ba81576e890541dbc0ae0f",
        "android_client_info": {
          "package_name": "op.society.app.android"
        }
      },
      "oauth_client": [
        {
          "client_id": "233071263774-6m81oormsjfdrhsoo8b97eoloct5norf.apps.googleusercontent.com",
          "client_type": 3
        }
      ],
      "api_key": [
        {
          "current_key": "AIzaSyAf2yAi2J-nYhYTHMclX4uN41SD-eW9ewE"
        }
      ],
      "services": {
        "appinvite_service": {
          "other_platform_oauth_client": [
            {
              "client_id": "233071263774-6m81oormsjfdrhsoo8b97eoloct5norf.apps.googleusercontent.com",
              "client_type": 3
            }
          ]
        }
      }
    }
  ],
  "configuration_version": "1"
}